%YAML 1.1
%TAG !u! tag:unity3d.com,2011:
--- !u!78 &1
TagManager:
  serializedVersion: 2
  tags:
  - Enemy
  layers:
  - Default
  - TransparentFX
  - Ignore Raycast
  - 
  - Water
  - UI
  - 
  - 
  - Player
  - Enemy
  - Player_attack
  - Enemy_attack
  - Dead
  - Player_damage
  - Player_invincible
  - 
  - 
  - 
  - 
  - 
  - 
  - 
  - 
  - 
  - 
  - 
  - 
  - 
  - 
  - 
  - 
  - 
  m_SortingLayers:
  - name: Back ground
    uniqueID: 1330689423
    locked: 0
  - name: Default
    uniqueID: 0
    locked: 0
  - name: Chara
    uniqueID: 4278168555
    locked: 0
  - name: Effect
    uniqueID: 149848453
    locked: 0
  - name: UI
    uniqueID: 1669865363
    locked: 0
